,date,city,rent,product
0,2021-01-01,Bitlis,10,1862
1,2021-01-02,Çanakkale,9,1613
2,2021-01-03,Aksaray,15,1314
3,2021-01-04,Van,16,1543
4,2021-01-05,Elazığ,13,1235
5,2021-01-06,Isparta,17,1932
6,2021-01-07,Kars,4,1946
7,2021-01-08,Niğde,1,1727
8,2021-01-09,Iğdır,4,1650
9,2021-01-10,Edirne,14,1602
10,2021-01-11,Nevşehir,14,1800
11,2021-01-12,Niğde,7,1805
12,2021-01-13,Zonguldak,13,1777
13,2021-01-14,Karabük,12,1173
14,2021-01-15,Rize,13,1372
15,2021-01-16,Denizli,7,1627
16,2021-01-17,Konya,8,1250
17,2021-01-18,Gümüşhane,5,1449
18,2021-01-19,Çankırı,7,1373
19,2021-01-20,Muğla,12,1947
20,2021-01-21,Elazığ,6,1113
21,2021-01-22,Çorum,4,1707
22,2021-01-23,Van,4,1123
23,2021-01-24,Mardin,13,1754
24,2021-01-25,Kırklareli,4,1959
25,2021-01-26,Ardahan,8,1123
26,2021-01-27,Kayseri,11,1790
27,2021-01-28,Bursa,5,1948
28,2021-01-29,Ardahan,7,1588
29,2021-01-30,Burdur,9,1446
30,2021-01-31,Osmaniye,8,1861
31,2021-02-01,Ağrı,17,1649
32,2021-02-02,Kırklareli,13,1000
33,2021-02-03,Niğde,13,1396
34,2021-02-04,Ağrı,11,1936
35,2021-02-05,Tokat,3,1186
36,2021-02-06,Afyon,12,1607
37,2021-02-07,Trabzon,13,1171
38,2021-02-08,İçel (Mersin),7,1674
39,2021-02-09,Hakkari,16,1515
40,2021-02-10,Ağrı,15,1324
41,2021-02-11,Aksaray,4,1885
42,2021-02-12,Kırıkkale,11,1631
43,2021-02-13,Bilecik,5,1617
44,2021-02-14,Adıyaman,2,1575
45,2021-02-15,Sivas,1,1481
46,2021-02-16,Elazığ,11,1148
47,2021-02-17,Elazığ,11,1423
48,2021-02-18,Balıkesir,2,1738
49,2021-02-19,Kayseri,17,1667
50,2021-02-20,Tokat,1,1151
51,2021-02-21,Giresun,10,1223
52,2021-02-22,Bilecik,8,1377
53,2021-02-23,Sakarya,6,1928
54,2021-02-24,Konya,15,1595
55,2021-02-25,Kırıkkale,17,1632
56,2021-02-26,Şanlıurfa,10,1430
57,2021-02-27,Elazığ,5,1743
58,2021-02-28,Düzce,3,1853
59,2021-03-01,Kilis,8,1058
60,2021-03-02,Bayburt,16,1884
61,2021-03-03,Amasya,12,1237
62,2021-03-04,Artvin,17,1855
63,2021-03-05,Trabzon,11,1150
64,2021-03-06,Edirne,10,1456
65,2021-03-07,Kayseri,14,1264
66,2021-03-08,Sinop,8,1478
67,2021-03-09,Şırnak,16,1876
68,2021-03-10,Osmaniye,8,1481
69,2021-03-11,Diyarbakır,5,1901
70,2021-03-12,Trabzon,3,1512
71,2021-03-13,Kırşehir,2,1217
72,2021-03-14,Karabük,2,1798
73,2021-03-15,Malatya,1,1100
74,2021-03-16,Kahramanmaraş,8,1427
75,2021-03-17,Tekirdağ,17,1273
76,2021-03-18,Malatya,15,1264
77,2021-03-19,Muş,10,1621
78,2021-03-20,Mardin,3,1678
79,2021-03-21,Muş,6,1397
80,2021-03-22,Kütahya,14,1948
81,2021-03-23,Gaziantep,2,1608
82,2021-03-24,Trabzon,12,1479
83,2021-03-25,Aksaray,15,1792
84,2021-03-26,Hatay,6,1500
85,2021-03-27,Erzurum,3,1663
86,2021-03-28,Kilis,10,1771
87,2021-03-29,Şırnak,8,1334
88,2021-03-30,Samsun,16,1225
89,2021-03-31,Uşak,7,1246
90,2021-04-01,Iğdır,10,1952
91,2021-04-02,Ankara,5,1619
92,2021-04-03,Muş,7,1875
93,2021-04-04,Ordu,8,1121
94,2021-04-05,Adıyaman,10,1433
95,2021-04-06,Şırnak,15,1542
96,2021-04-07,Manisa,15,1843
97,2021-04-08,Bingöl,10,1065
98,2021-04-09,Burdur,15,1475
99,2021-04-10,Düzce,13,1824
100,2021-04-11,Yalova,17,1332
101,2021-04-12,Giresun,5,1577
102,2021-04-13,Siirt,5,1632
103,2021-04-14,Kütahya,15,1214
104,2021-04-15,İstanbul,15,1420
105,2021-04-16,Kütahya,16,1861
106,2021-04-17,Kocaeli,11,1316
107,2021-04-18,Kırşehir,13,1548
108,2021-04-19,Malatya,13,1658
109,2021-04-20,Edirne,12,1756
110,2021-04-21,Kahramanmaraş,5,1945
111,2021-04-22,Kilis,3,1162
112,2021-04-23,Iğdır,8,1263
113,2021-04-24,Aydın,8,1115
114,2021-04-25,Konya,13,1788
115,2021-04-26,Gaziantep,16,1487
116,2021-04-27,Adana,12,1227
117,2021-04-28,Karabük,7,1459
118,2021-04-29,Kırıkkale,6,1059
119,2021-04-30,Bitlis,1,1962
120,2021-05-01,Tekirdağ,5,1585
121,2021-05-02,Elazığ,16,1644
122,2021-05-03,Edirne,13,1024
123,2021-05-04,Sivas,13,1534
124,2021-05-05,Tekirdağ,5,1958
125,2021-05-06,Kastamonu,11,1446
126,2021-05-07,Kars,3,1870
127,2021-05-08,Bartın,2,1151
128,2021-05-09,Batman,17,1358
129,2021-05-10,Çorum,13,1368
130,2021-05-11,Gümüşhane,8,1212
131,2021-05-12,Kahramanmaraş,3,1726
132,2021-05-13,Tekirdağ,3,1592
133,2021-05-14,Ardahan,16,1172
134,2021-05-15,Kırklareli,2,1449
135,2021-05-16,Çankırı,8,1480
136,2021-05-17,Erzurum,16,1126
137,2021-05-18,Aydın,14,1415
138,2021-05-19,Malatya,9,1759
139,2021-05-20,Erzincan,3,1373
140,2021-05-21,Hakkari,6,1607
141,2021-05-22,Elazığ,13,1734
142,2021-05-23,Aydın,2,1341
143,2021-05-24,Tokat,14,1786
144,2021-05-25,Nevşehir,16,1626
145,2021-05-26,Gaziantep,17,1404
146,2021-05-27,Siirt,17,1914
147,2021-05-28,Aksaray,15,1814
148,2021-05-29,Ankara,17,1905
149,2021-05-30,Erzurum,5,1661
150,2021-05-31,Hakkari,2,1987
151,2021-06-01,Yozgat,6,1577
152,2021-06-02,Balıkesir,16,1171
153,2021-06-03,İçel (Mersin),4,1025
154,2021-06-04,Hatay,3,1884
155,2021-06-05,Gaziantep,15,1622
156,2021-06-06,Sakarya,13,1677
157,2021-06-07,Van,5,1362
158,2021-06-08,Şırnak,10,1491
159,2021-06-09,Antalya,13,1166
160,2021-06-10,Aydın,9,1265
161,2021-06-11,Bitlis,13,1132
162,2021-06-12,Eskişehir,17,1690
163,2021-06-13,Kilis,14,1821
164,2021-06-14,Burdur,7,1510
165,2021-06-15,Manisa,13,1851
166,2021-06-16,Ardahan,10,1833
167,2021-06-17,Mardin,17,1908
168,2021-06-18,Yozgat,6,1914
169,2021-06-19,Ardahan,14,1103
170,2021-06-20,Şırnak,9,1951
171,2021-06-21,İstanbul,13,1268
172,2021-06-22,Antalya,15,1862
173,2021-06-23,Amasya,11,1781
174,2021-06-24,Zonguldak,6,1871
175,2021-06-25,Bolu,12,1867
176,2021-06-26,Bartın,16,1144
177,2021-06-27,Ordu,11,1021
178,2021-06-28,Sakarya,16,1654
179,2021-06-29,Kayseri,13,1032
180,2021-06-30,Karaman,2,1300
181,2021-07-01,Ordu,8,1761
182,2021-07-02,Afyon,12,1934
183,2021-07-03,Elazığ,10,1945
184,2021-07-04,Edirne,5,1857
185,2021-07-05,Muş,4,1794
186,2021-07-06,Ağrı,12,1597
187,2021-07-07,Eskişehir,1,1448
188,2021-07-08,Sinop,13,1904
189,2021-07-09,Osmaniye,17,1720
190,2021-07-10,Aydın,13,1286
191,2021-07-11,Ankara,3,1748
192,2021-07-12,Şırnak,15,1976
193,2021-07-13,Aydın,4,1027
194,2021-07-14,Edirne,13,1390
195,2021-07-15,Bursa,11,1458
196,2021-07-16,Kocaeli,1,1774
197,2021-07-17,Edirne,6,1005
198,2021-07-18,Kayseri,9,1764
199,2021-07-19,Bursa,16,1261
200,2021-07-20,Uşak,9,1701
201,2021-07-21,Osmaniye,17,1222
202,2021-07-22,Sakarya,7,1188
203,2021-07-23,Kırklareli,7,1511
204,2021-07-24,Balıkesir,17,1170
205,2021-07-25,Konya,15,1189
206,2021-07-26,Tokat,16,1161
207,2021-07-27,Bitlis,8,1080
208,2021-07-28,Tekirdağ,13,1244
209,2021-07-29,Afyon,16,1648
210,2021-07-30,İzmir,2,1954
211,2021-07-31,Kırklareli,6,1337
212,2021-08-01,Kocaeli,5,1798
213,2021-08-02,Ağrı,1,1846
214,2021-08-03,Kütahya,10,1287
215,2021-08-04,Kahramanmaraş,11,1420
216,2021-08-05,Antalya,1,1821
217,2021-08-06,Karabük,7,1433
218,2021-08-07,Niğde,3,1323
219,2021-08-08,Düzce,3,1818
220,2021-08-09,Giresun,11,1264
221,2021-08-10,Ağrı,1,1479
222,2021-08-11,Giresun,1,1286
223,2021-08-12,Aksaray,5,1662
224,2021-08-13,Tekirdağ,10,1597
225,2021-08-14,Ordu,1,1025
226,2021-08-15,Gümüşhane,17,1679
227,2021-08-16,Muş,12,1155
228,2021-08-17,Manisa,4,1422
229,2021-08-18,Ordu,9,1316
230,2021-08-19,Kocaeli,14,1240
231,2021-08-20,Kastamonu,2,1463
232,2021-08-21,Sinop,13,1780
233,2021-08-22,Edirne,17,1431
234,2021-08-23,Sivas,14,1456
235,2021-08-24,Tokat,1,1913
236,2021-08-25,Kilis,2,1048
237,2021-08-26,Bursa,5,1395
238,2021-08-27,Niğde,3,1319
239,2021-08-28,Artvin,7,1032
240,2021-08-29,Karaman,4,1921
241,2021-08-30,Adıyaman,5,1261
242,2021-08-31,Muğla,2,1191
243,2021-09-01,Gaziantep,17,1360
244,2021-09-02,Çanakkale,5,1634
245,2021-09-03,Balıkesir,12,1277
246,2021-09-04,Konya,13,1634
247,2021-09-05,Samsun,13,1040
248,2021-09-06,Mardin,14,1597
249,2021-09-07,Bolu,6,1219
250,2021-09-08,İçel (Mersin),3,1459
251,2021-09-09,Düzce,17,1940
252,2021-09-10,Ordu,15,1327
253,2021-09-11,Şanlıurfa,17,1214
254,2021-09-12,Yalova,1,1189
255,2021-09-13,Tekirdağ,7,1856
256,2021-09-14,Zonguldak,15,1484
257,2021-09-15,Aydın,13,1390
258,2021-09-16,Osmaniye,5,1302
259,2021-09-17,Elazığ,4,1875
260,2021-09-18,Aydın,6,1652
261,2021-09-19,Afyon,3,1945
262,2021-09-20,Çankırı,11,1360
263,2021-09-21,Diyarbakır,5,1853
264,2021-09-22,Batman,11,1417
265,2021-09-23,Bolu,17,1122
266,2021-09-24,Isparta,11,1023
267,2021-09-25,Kilis,11,1899
268,2021-09-26,Bitlis,6,1703
269,2021-09-27,Karabük,2,1327
270,2021-09-28,Bolu,16,1003
271,2021-09-29,Iğdır,7,1751
272,2021-09-30,Antalya,7,1745
273,2021-10-01,Erzincan,13,1468
274,2021-10-02,Kırşehir,17,1135
275,2021-10-03,Kırıkkale,12,1633
276,2021-10-04,Antalya,12,1938
277,2021-10-05,Kırklareli,11,1233
278,2021-10-06,Ağrı,10,1008
279,2021-10-07,Manisa,10,1780
280,2021-10-08,Muş,7,1000
281,2021-10-09,Kocaeli,1,1079
282,2021-10-10,Bayburt,8,1067
283,2021-10-11,Aksaray,9,1675
284,2021-10-12,Batman,8,1824
285,2021-10-13,Samsun,13,1519
286,2021-10-14,Yozgat,1,1379
287,2021-10-15,Sakarya,2,1492
288,2021-10-16,Burdur,11,1816
289,2021-10-17,Kastamonu,8,1830
290,2021-10-18,Bolu,11,1516
291,2021-10-19,Uşak,5,1097
292,2021-10-20,Adıyaman,10,1360
293,2021-10-21,Ardahan,1,1026
294,2021-10-22,İçel (Mersin),13,1109
295,2021-10-23,Ankara,17,1457
296,2021-10-24,Konya,8,1238
297,2021-10-25,Samsun,16,1571
298,2021-10-26,Antalya,6,1241
299,2021-10-27,Samsun,5,1663
300,2021-10-28,Bayburt,15,1472
301,2021-10-29,Yalova,7,1775
302,2021-10-30,Trabzon,11,1079
303,2021-10-31,Bingöl,7,1498
304,2021-11-01,İstanbul,2,1371
305,2021-11-02,Kayseri,8,1728
306,2021-11-03,Erzurum,5,1180
307,2021-11-04,Ağrı,15,1470
308,2021-11-05,Uşak,6,1008
309,2021-11-06,Artvin,4,1394
310,2021-11-07,Aydın,12,1766
311,2021-11-08,Sivas,16,1450
312,2021-11-09,Kahramanmaraş,8,1538
313,2021-11-10,Ağrı,1,1039
314,2021-11-11,Muş,7,1078
315,2021-11-12,Mardin,16,1125
316,2021-11-13,Karaman,1,1012
317,2021-11-14,Konya,5,1389
318,2021-11-15,Erzincan,5,1317
319,2021-11-16,Adana,9,1094
320,2021-11-17,Giresun,15,1748
321,2021-11-18,Muş,9,1832
322,2021-11-19,Malatya,3,1129
323,2021-11-20,Iğdır,12,1324
324,2021-11-21,Amasya,14,1753
325,2021-11-22,Iğdır,4,1680
326,2021-11-23,Batman,14,1461
327,2021-11-24,Karaman,2,1564
328,2021-11-25,Tokat,3,1252
329,2021-11-26,Aydın,8,1057
330,2021-11-27,Kahramanmaraş,11,1437
331,2021-11-28,Rize,3,1556
332,2021-11-29,Malatya,12,1684
333,2021-11-30,Afyon,8,1955
334,2021-12-01,Malatya,5,1549
335,2021-12-02,Tekirdağ,2,1331
336,2021-12-03,Tunceli,7,1380
337,2021-12-04,İçel (Mersin),7,1912
338,2021-12-05,Van,12,1831
339,2021-12-06,Diyarbakır,17,1110
340,2021-12-07,Bolu,16,1370
341,2021-12-08,Tokat,6,1591
342,2021-12-09,Tunceli,7,1517
343,2021-12-10,Kars,2,1043
344,2021-12-11,Burdur,16,1417
345,2021-12-12,Muş,17,1004
346,2021-12-13,Kırşehir,12,1946
347,2021-12-14,Adıyaman,15,1593
348,2021-12-15,Afyon,10,1420
349,2021-12-16,Karaman,7,1593
350,2021-12-17,Erzincan,11,1731
351,2021-12-18,Karabük,13,1768
352,2021-12-19,Şanlıurfa,13,1146
353,2021-12-20,Diyarbakır,1,1497
354,2021-12-21,Şırnak,15,1026
355,2021-12-22,Çankırı,5,1136
356,2021-12-23,Aksaray,9,1631
357,2021-12-24,Sakarya,1,1676
358,2021-12-25,Balıkesir,12,1908
359,2021-12-26,Hakkari,6,1499
360,2021-12-27,Karaman,8,1697
361,2021-12-28,Kahramanmaraş,11,1240
362,2021-12-29,Denizli,17,1908
363,2021-12-30,Kilis,14,1711
